<?xml version="1.0" encoding="utf-8"?>
<svg
  version="1.1"
  id="Layer_1"
  xmlns="http://www.w3.org/2000/svg"
  xmlns:xlink="http://www.w3.org/1999/xlink"
  x="0px"
  y="0px"
  viewBox="0 0 100 100"
  width="100"
  height="100"
  style="enable-background:new 0 0 100 100;"
  xml:space="preserve">
<style type="text/css">
	.st0{fill:#FFFFFF;}
	.st1{fill:#0096AC;}
</style>
<rect y="0" class="st0" width="100" height="100"/>
<path class="st1" d="M100,100H0V0h100V100z M11.6,88.4h76.7V11.7H11.6V88.4z"/>
<path class="st1" d="M31.2,77.2v-54h23.1c3.4,0,6.2,0.5,8.6,1.4c2.3,1,4.2,2.3,5.7,3.9c1.4,1.6,2.4,3.5,3.1,5.5c0.7,2,1,4,1,6.1
	c0,1.3-0.2,2.6-0.5,3.9c-0.3,1.3-0.8,2.7-1.4,3.9c-0.6,1.2-1.4,2.5-2.4,3.6c-1,1.2-2.1,2.1-3.6,2.9c-1.3,0.9-3,1.4-4.7,1.9
	c-1.7,0.5-3.7,0.7-6,0.7H41.5V77H31.2V77.2z M54.7,47.4c1.3,0,2.4-0.2,3.4-0.7c0.9-0.4,1.6-1,2.2-1.6c0.6-0.7,1-1.4,1.2-2.3
	c0.3-0.9,0.4-1.7,0.4-2.6c0-0.8-0.1-1.5-0.3-2.4c-0.2-0.9-0.6-1.6-1.2-2.3c-0.6-0.7-1.2-1.2-2.2-1.7c-1-0.5-2.1-0.7-3.5-0.7H41.5
	v14.3H54.7z"/>
</svg>
